…
```sql
SELECT "Primary Type", COUNT(*) as TotalCases
FROM chicago_crime
GROUP BY "Primary Type"
```

This is the output of the query:

```python 
duckdb.sql(response.sql).show()

┌───────────────────────────────────┬────────────┐
│           Primary Type            │ TotalCases │
│              varchar              │   int64    │
├───────────────────────────────────┼────────────┤
│ MOTOR VEHICLE THEFT               │      54934 │
│ ROBBERY                           │      25082 │
│ WEAPONS VIOLATION                 │      24672 │
│ INTERFERENCE WITH PUBLIC OFFICER  │       1161 │
│ OBSCENITY                         │        127 │
│ STALKING                          │       1206 │
│ BATTERY                           │     115760 │
│ OFFENSE INVOLVING CHILDREN        │       5177 │
│ CRIMINAL TRESPASS                 │      11255 │
│ PUBLIC PEACE VIOLATION            │       1980 │
│    ·                              │         ·  │
│    ·                              │         ·  │
│    ·                              │         ·  │
│ ASSAULT                           │      58685 │
│ CRIMINAL DAMAGE                   │      75611 │
│ DECEPTIVE PRACTICE                │      46377 │
│ NARCOTICS                         │      13931 │
│ BURGLARY                          │      19898 │
...
├───────────────────────────────────┴────────────┤
│ 31 rows (20 shown)                   2 columns │
└────────────────────────────────────────────────┘
…
